<?xml version="1.0" standalone="no"?>
<!DOCTYPE svg PUBLIC "-//W3C//DTD SVG 20010904//EN"
 "http://www.w3.org/TR/2001/REC-SVG-20010904/DTD/svg10.dtd">
<svg version="1.0" xmlns="http://www.w3.org/2000/svg"
 width="836.000000pt" height="836.000000pt" viewBox="0 0 836.000000 836.000000"
 preserveAspectRatio="xMidYMid meet">
<metadata>
Created by potrace 1.11, written by Peter Selinger 2001-2013
</metadata>
<g transform="translate(0.000000,836.000000) scale(0.100000,-0.100000)"
fill="#000000" stroke="none">
<path d="M2797 7864 c-1 -2 -38 -6 -82 -9 -109 -8 -180 -17 -260 -32 -16 -3
-38 -5 -47 -5 -10 0 -18 -2 -18 -6 0 -9 245 -6 261 4 8 4 10 3 5 -4 -5 -8 8
-10 44 -8 27 1 50 0 50 -4 0 -3 15 -6 33 -6 37 -1 145 -12 196 -21 20 -3 45
-7 56 -8 11 -1 27 -5 35 -8 8 -3 31 -8 50 -11 55 -9 125 -23 125 -26 0 -2 14
-5 75 -20 25 -6 54 -15 65 -20 11 -5 40 -15 65 -21 61 -17 61 -17 137 -50 23
-11 44 -19 47 -19 3 0 31 -11 63 -26 32 -14 59 -24 59 -22 1 2 11 -5 22 -15
11 -10 27 -19 34 -21 35 -5 243 -141 335 -219 66 -56 203 -211 203 -231 0 -5
-10 4 -22 20 -29 40 -187 195 -222 219 -16 11 -37 28 -48 38 -10 9 -18 15 -18
12 0 -3 -21 10 -47 28 -61 42 -311 163 -378 183 -16 5 -98 34 -115 41 -78 32
-350 94 -515 117 -16 2 -30 5 -30 6 0 6 -208 14 -360 14 -168 0 -295 -6 -356
-19 -14 -2 -45 -7 -70 -9 -24 -3 -44 -5 -44 -6 0 -1 -9 -3 -20 -4 -47 -7 -193
-39 -231 -52 -22 -7 -49 -15 -60 -17 -10 -2 -26 -7 -34 -10 -8 -3 -44 -16 -80
-28 -143 -47 -393 -165 -438 -206 -7 -7 -18 -13 -23 -13 -9 0 -127 -82 -185
-129 -140 -113 -244 -217 -324 -321 -19 -25 -37 -47 -40 -50 -13 -12 -112
-163 -157 -240 -55 -95 -136 -258 -136 -277 0 -7 -4 -13 -9 -13 -4 0 -8 -6 -8
-12 0 -12 -67 -193 -90 -243 -22 -49 -87 -270 -96 -325 -2 -14 -7 -36 -11 -50
-8 -33 -11 -48 -18 -95 -3 -22 -7 -51 -10 -65 -3 -14 -8 -68 -12 -120 -22
-317 13 -602 109 -890 12 -36 23 -67 23 -70 1 -3 5 -14 10 -25 4 -11 19 -47
32 -80 53 -129 208 -407 243 -435 4 -3 10 -14 13 -24 4 -10 10 -17 12 -14 3 2
-12 54 -33 114 -34 95 -65 203 -78 269 -2 11 -6 31 -9 45 -4 14 -8 36 -11 50
-2 14 -7 36 -10 50 -3 14 -8 36 -10 50 -7 44 -14 85 -18 105 -4 19 -14 105
-21 170 -22 195 -22 578 -1 695 3 14 7 50 11 80 3 30 8 69 11 85 3 17 7 39 9
50 17 100 76 328 88 344 7 8 11 17 10 20 -5 10 27 97 58 161 16 33 29 63 29
65 0 3 18 35 40 71 22 36 40 68 40 70 0 7 51 83 95 144 55 76 57 78 85 105 14
14 22 25 19 25 -7 0 127 137 187 190 50 46 222 169 271 195 21 11 40 22 43 25
10 10 182 92 220 105 3 1 12 5 20 8 75 31 268 89 340 102 19 3 53 10 75 15 22
5 63 12 90 15 28 4 61 8 75 10 39 6 249 19 310 18 63 0 282 -12 320 -18 14 -2
39 -6 55 -9 17 -2 50 -8 75 -11 25 -3 72 -13 105 -22 33 -8 67 -16 75 -18 8
-2 35 -9 60 -16 25 -7 47 -13 50 -14 94 -22 381 -148 474 -208 258 -164 419
-329 528 -543 52 -101 105 -250 100 -276 -1 -4 2 -18 7 -31 28 -73 30 -373 5
-492 -3 -11 -7 -38 -10 -59 -2 -22 -6 -42 -9 -44 -6 -7 21 -56 39 -71 21 -18
111 -16 163 2 22 9 44 13 47 10 3 -4 6 -2 6 4 0 6 10 13 23 17 12 3 58 31 102
63 105 77 120 87 185 130 30 20 57 39 60 42 10 11 69 51 76 51 4 0 17 8 28 19
39 34 320 198 446 258 118 57 320 137 371 147 13 2 35 9 49 14 14 5 28 10 33
10 4 0 40 8 80 16 92 20 122 25 177 32 25 3 51 7 58 9 32 11 322 24 322 15 0
-3 15 -5 34 -4 19 1 53 -2 77 -6 24 -5 58 -11 74 -13 17 -3 55 -13 85 -21 30
-9 62 -18 71 -20 10 -3 52 -20 94 -40 128 -59 254 -159 331 -262 16 -21 31
-41 34 -44 26 -26 96 -180 123 -270 23 -76 29 -106 44 -200 6 -38 5 -291 -1
-320 -5 -22 -9 -45 -21 -127 -15 -101 -67 -250 -137 -393 -39 -80 -74 -147
-78 -150 -3 -3 -10 -12 -14 -20 -14 -31 -96 -162 -106 -170 -3 -3 -17 -23 -30
-45 -13 -22 -28 -44 -32 -50 -5 -5 -54 -71 -111 -146 -104 -139 -133 -175
-247 -308 -242 -283 -576 -617 -920 -921 -47 -41 -87 -77 -90 -80 -3 -3 -48
-41 -100 -85 -52 -44 -100 -85 -106 -91 -7 -6 -79 -64 -161 -130 -81 -65 -153
-123 -160 -129 -23 -19 -38 -30 -123 -95 -47 -36 -89 -68 -95 -73 -5 -4 -37
-28 -70 -52 -33 -25 -65 -49 -71 -54 -16 -13 -170 -125 -250 -181 -94 -66
-501 -341 -561 -379 l-53 -33 -52 38 c-75 54 -297 231 -377 300 -100 85 -197
100 -258 38 -31 -31 -3 -71 102 -148 22 -17 42 -32 45 -35 3 -4 12 -10 21 -16
9 -5 47 -31 85 -56 128 -86 173 -112 309 -183 144 -76 126 -75 261 -15 252
110 414 181 424 184 16 5 91 38 126 55 23 11 44 20 47 20 4 0 36 14 72 30 36
17 68 30 72 30 3 0 -14 -17 -38 -39 -24 -21 -65 -58 -90 -82 -38 -37 -115
-108 -289 -269 -53 -50 -232 -216 -269 -250 -21 -19 -88 -82 -151 -140 -62
-58 -132 -123 -155 -145 -23 -22 -79 -74 -125 -115 -46 -41 -90 -82 -98 -92
-15 -16 -36 -3 -177 110 -5 4 -57 43 -115 87 -58 43 -107 81 -110 85 -3 3 -21
17 -40 30 -19 13 -37 27 -40 30 -3 3 -23 18 -45 35 -22 16 -46 35 -54 43 -19
19 -33 10 -37 -24 -2 -16 -14 -51 -28 -78 -13 -27 -22 -54 -20 -61 4 -9 320
-217 412 -270 9 -6 43 -27 74 -47 127 -82 143 -92 151 -90 4 1 7 -2 7 -8 0
-16 30 1 116 64 45 34 90 67 100 74 26 17 224 158 253 179 13 10 56 41 96 68
84 58 235 166 250 178 6 4 73 53 150 108 77 55 147 105 155 112 8 7 58 43 110
82 52 38 97 72 100 75 3 3 41 32 85 65 76 56 314 244 325 255 3 3 50 43 105
89 55 47 109 94 121 105 12 12 54 50 94 86 192 170 507 485 720 720 127 139
128 140 183 205 29 32 59 66 67 75 8 8 31 35 50 60 19 24 46 57 60 72 31 34
23 24 168 208 67 85 127 161 133 168 30 36 189 253 189 257 0 3 11 18 25 33
14 15 25 32 25 39 0 7 4 13 9 13 5 0 12 8 15 18 4 10 14 27 24 38 9 11 22 29
29 40 7 10 48 76 92 145 44 70 90 144 102 165 69 124 110 204 102 203 -4 0
-46 -59 -93 -130 -80 -122 -131 -192 -114 -159 4 8 21 35 38 60 17 25 36 53
41 62 6 9 36 58 68 108 31 51 57 94 57 97 0 3 8 17 19 31 99 142 314 625 357
802 2 8 10 40 18 70 8 30 18 69 21 85 3 17 8 41 11 55 29 137 40 457 19 555
-28 137 -86 297 -121 336 -9 11 -14 19 -11 19 10 0 -70 110 -131 180 -73 84
-161 161 -253 222 -41 26 -78 52 -84 56 -24 17 -177 87 -248 114 -75 27 -200
62 -262 73 -16 2 -41 7 -55 10 -65 14 -147 19 -285 19 -173 0 -268 -8 -410
-34 -27 -5 -61 -12 -75 -14 -128 -23 -368 -95 -524 -157 -260 -104 -587 -290
-782 -444 -28 -22 -68 -53 -89 -70 -21 -16 -41 -31 -45 -33 -3 -1 -6 44 -6
100 -1 139 -12 232 -48 380 -29 117 -138 331 -211 414 -5 7 -19 24 -30 40 -22
31 -121 131 -176 179 -137 119 -338 234 -534 305 -49 18 -99 36 -110 40 -11 5
-33 12 -50 16 -16 4 -32 8 -35 9 -42 10 -170 38 -185 40 -11 1 -20 3 -20 4 0
1 -13 4 -30 6 -16 1 -48 6 -70 9 -92 14 -159 18 -327 20 -98 2 -179 2 -181 0z
m4733 -3788 c0 -2 -8 -10 -17 -17 -16 -13 -17 -12 -4 4 13 16 21 21 21 13z"/>
<path d="M2597 7294 c-1 -1 -38 -4 -82 -8 -44 -3 -91 -8 -105 -10 -14 -3 -45
-7 -70 -10 -59 -8 -102 -16 -110 -21 -4 -2 -22 -7 -41 -10 -139 -23 -402 -131
-583 -239 -74 -43 -196 -139 -257 -200 -150 -149 -290 -379 -358 -586 -12 -36
-25 -72 -28 -80 -3 -8 -7 -19 -7 -25 -2 -15 -27 -118 -33 -135 -3 -8 -7 -28
-8 -45 -2 -16 -6 -43 -9 -60 -61 -327 -21 -788 96 -1115 11 -30 21 -59 23 -65
4 -16 34 -84 72 -165 77 -160 177 -303 295 -422 42 -43 82 -78 89 -78 7 0 3
10 -9 23 -12 13 -22 29 -22 35 0 7 -4 12 -10 12 -5 0 -10 6 -10 14 0 8 -3 16
-7 18 -8 3 -17 19 -79 135 -67 128 -143 335 -179 490 -22 93 -23 94 -41 217
-3 21 -7 48 -10 59 -21 111 -20 477 2 591 4 24 15 91 20 126 2 14 8 45 14 70
7 25 14 55 16 67 2 12 9 35 15 50 6 16 13 37 15 48 7 36 81 218 113 280 55
103 76 140 82 145 3 3 21 28 39 55 19 28 37 52 42 53 4 2 8 9 8 15 1 21 248
257 269 257 5 0 11 4 13 9 3 8 66 50 118 79 37 21 204 106 210 107 3 1 23 9
45 19 142 62 322 109 550 143 97 14 441 6 525 -12 14 -3 39 -8 55 -11 52 -8
68 -12 150 -33 132 -33 304 -98 360 -135 l30 -20 -25 28 c-13 15 -49 44 -80
64 -64 42 -242 132 -262 132 -8 0 -18 4 -23 9 -11 9 -117 47 -156 55 -13 3
-62 15 -108 26 -46 12 -86 19 -88 16 -3 -3 -13 -1 -22 3 -17 10 -77 18 -206
27 -71 6 -234 11 -238 8z"/>
<path d="M6764 6065 c-56 -23 -75 -83 -44 -141 37 -68 158 -44 173 34 7 35
-15 87 -43 102 -33 18 -53 19 -86 5z"/>
<path d="M6130 5833 c-40 -37 -48 -86 -21 -130 56 -89 200 -37 185 68 -7 47
-54 89 -99 89 -24 0 -44 -9 -65 -27z"/>
<path d="M6725 5830 c-4 -6 -9 -183 -11 -393 -3 -209 -7 -383 -10 -386 -3 -3
-18 -6 -32 -7 -32 -1 -156 -13 -192 -19 -67 -10 -110 -17 -162 -29 -52 -12
-57 -12 -61 6 -3 10 -1 21 4 24 6 4 6 11 0 18 -6 7 -9 15 -6 18 3 3 8 97 11
209 3 112 6 228 8 258 1 46 -2 55 -21 68 -13 9 -46 16 -75 17 l-53 1 -1 -325
c-1 -179 -2 -330 -3 -336 0 -6 -15 -14 -31 -18 -48 -9 -181 -74 -202 -98 -20
-23 -18 -63 6 -100 14 -23 31 -23 64 1 48 33 161 90 165 83 2 -4 4 -108 4
-230 1 -138 5 -228 11 -234 11 -11 88 -16 97 -6 3 3 8 106 11 229 8 314 7 302
24 305 8 2 55 15 104 28 48 14 103 28 122 30 64 11 139 19 174 20 l35 1 -2
-175 c-1 -96 -2 -233 -3 -304 -1 -70 2 -132 7 -136 4 -4 25 -10 46 -13 33 -5
37 -3 38 16 0 12 2 36 4 52 2 28 13 174 20 295 6 92 16 232 20 290 3 30 7 93
9 140 3 47 8 112 10 145 6 65 16 217 22 305 1 30 6 94 9 141 6 84 5 87 -17 94
-13 4 -26 7 -30 6 -5 -1 -8 2 -8 7 0 12 -98 14 -105 2z"/>
<path d="M5654 5480 c-71 -32 -99 -112 -64 -185 47 -97 182 -104 239 -12 72
117 -50 254 -175 197z"/>
<path d="M4985 5270 c-54 -9 -92 -38 -115 -85 -34 -70 -16 -144 46 -191 30
-23 46 -28 91 -28 60 1 93 19 131 74 69 103 -30 253 -153 230z"/>
<path d="M5625 5182 c-9 -6 -15 -227 -19 -758 l-1 -162 -40 0 c-22 0 -67 -3
-100 -7 -33 -3 -80 -8 -105 -10 -25 -2 -47 -5 -50 -6 -3 -1 -9 -3 -15 -4 -5 0
-32 -5 -60 -9 -27 -4 -52 -8 -55 -9 -3 0 -24 -6 -47 -13 -23 -7 -45 -10 -47
-6 -5 8 -2 167 9 508 l5 191 -37 14 c-21 8 -59 16 -84 18 -38 2 -47 -1 -51
-16 -2 -10 -3 -185 -3 -388 l1 -371 -76 -28 c-90 -33 -167 -72 -197 -99 -17
-15 -21 -28 -18 -48 8 -43 21 -73 39 -88 14 -12 22 -10 59 16 48 35 141 87
174 97 l22 7 1 -268 c0 -147 4 -271 9 -276 6 -6 32 -11 59 -13 38 -3 51 0 56
11 3 9 8 113 12 233 3 119 7 253 8 297 l3 80 44 13 c81 25 184 50 229 57 25 4
54 9 65 11 11 2 52 7 90 10 39 3 75 7 80 9 10 2 17 -20 16 -50 -7 -243 -7
-666 0 -671 5 -3 29 -8 53 -10 30 -4 43 -1 44 8 0 7 3 49 6 93 4 44 8 112 11
150 7 92 14 183 19 275 3 41 8 118 12 170 4 52 8 128 8 167 1 40 3 73 6 73 3
0 5 19 6 43 1 23 4 85 9 137 8 109 12 171 30 460 4 52 8 97 11 101 8 13 -27
38 -69 50 -55 15 -110 20 -122 11z"/>
<path d="M4342 4879 c-113 -56 -132 -208 -37 -295 70 -64 167 -63 243 1 102
88 73 248 -54 301 -48 20 -102 17 -152 -7z"/>
<path d="M3463 4625 c-58 -27 -86 -56 -111 -115 -35 -83 -10 -186 58 -244 17
-14 42 -29 56 -32 13 -3 24 -9 24 -13 0 -4 27 -6 59 -5 98 5 162 48 199 134
76 175 -112 356 -285 275z"/>
<path d="M4353 4479 c-21 -8 -22 -13 -23 -176 -4 -463 -8 -641 -14 -652 -4 -6
-2 -11 4 -11 6 0 8 -5 5 -11 -4 -5 -7 -75 -8 -155 l-1 -144 -51 -1 c-27 -1
-61 -2 -75 -4 -14 -2 -56 -6 -95 -9 -38 -4 -81 -8 -95 -11 -14 -2 -61 -9 -105
-15 -44 -7 -83 -14 -86 -16 -6 -3 -30 -8 -96 -18 -7 -1 -15 -5 -19 -8 -3 -4
-12 -4 -19 -2 -9 4 -12 24 -9 72 3 68 11 322 18 628 l5 171 -34 16 c-30 14
-48 19 -127 31 -57 9 -56 18 -55 -494 0 -259 -3 -474 -7 -477 -4 -4 -12 -8
-19 -9 -26 -4 -194 -73 -242 -98 -96 -52 -114 -90 -80 -167 32 -74 36 -75 102
-33 96 61 231 132 240 125 5 -3 9 -154 9 -334 0 -220 4 -331 11 -338 14 -14
124 -23 140 -12 9 6 14 72 18 228 11 429 15 526 20 535 4 7 88 36 130 46 6 1
30 7 55 14 25 7 56 14 70 17 40 8 55 11 55 13 0 1 9 3 20 4 29 4 114 17 138
22 12 2 57 6 99 9 57 3 78 1 79 -8 1 -13 -1 -186 -6 -620 -4 -290 -10 -264 71
-280 55 -10 62 4 70 143 4 69 8 139 9 155 2 17 6 77 10 135 3 58 8 128 10 155
8 115 16 224 20 290 4 71 12 181 20 290 3 33 7 103 10 155 3 52 8 120 10 150
3 30 7 96 10 145 4 50 8 113 11 140 2 28 6 91 9 140 3 50 7 121 9 158 l4 69
-36 15 c-38 16 -54 20 -112 29 -19 3 -39 6 -45 8 -5 2 -20 0 -32 -5z"/>
<path d="M1696 4049 c-74 -15 -95 -23 -122 -50 -78 -76 -74 -205 9 -281 36
-33 134 -81 219 -108 88 -28 91 -25 23 18 -148 95 -207 215 -134 276 17 14 34
26 37 27 4 0 16 3 27 6 38 10 190 14 204 5 7 -5 14 -22 16 -38 2 -38 8 -51 80
-209 32 -70 54 -118 60 -135 18 -46 31 -70 36 -70 6 0 -26 164 -35 179 -3 4
-8 23 -11 42 -3 19 -11 52 -16 74 -6 22 -13 49 -15 60 -18 82 -24 123 -24 157
0 35 -4 41 -33 53 -46 19 -212 16 -321 -6z"/>
<path d="M1004 3869 c-12 -4 -34 -10 -50 -12 -73 -12 -309 -83 -420 -126 -190
-73 -242 -162 -147 -248 48 -44 118 -93 132 -93 6 0 11 -4 11 -9 0 -5 18 -16
39 -24 22 -9 42 -21 46 -27 3 -5 11 -10 16 -10 6 0 -18 23 -53 51 -197 161
-195 218 10 293 40 14 85 28 100 31 15 3 38 8 52 11 14 3 77 16 140 30 184 40
174 39 225 10 61 -36 84 -72 87 -134 1 -43 -65 -90 -202 -143 -204 -79 -216
-85 -256 -124 -23 -23 -44 -56 -49 -76 -10 -43 -9 -117 3 -148 7 -21 11 -17
31 40 33 96 42 110 87 155 43 42 101 68 180 79 23 3 59 8 80 11 22 3 104 7
184 9 80 2 174 7 210 11 135 16 201 2 236 -51 19 -29 31 -81 26 -111 -6 -38
-120 -85 -239 -99 -29 -4 -66 -10 -83 -15 -17 -5 -33 -9 -35 -9 -3 0 -18 -2
-33 -5 -27 -6 -58 -10 -157 -22 -64 -7 -208 -45 -200 -52 3 -3 28 -5 55 -5 57
2 57 -3 0 -67 -51 -57 -72 -90 -60 -90 15 0 90 40 108 58 32 29 81 63 98 66
44 9 150 18 245 21 93 3 170 11 224 21 11 3 40 7 65 9 25 3 61 8 80 11 19 3
65 6 102 8 62 2 70 0 98 -25 18 -17 31 -39 32 -56 0 -15 1 -35 2 -43 0 -8 -5
-30 -11 -48 -11 -30 -36 -47 -83 -57 -8 -2 -15 -4 -15 -5 0 -1 -16 -3 -35 -5
-19 -1 -53 -6 -75 -9 -73 -12 -119 -17 -185 -21 -36 -2 -105 -6 -154 -9 -234
-15 -307 -40 -345 -120 -28 -57 -28 -73 2 -52 50 37 118 60 212 72 17 2 50 8
75 13 44 9 79 15 157 27 21 3 45 7 53 9 11 4 130 15 170 17 42 2 74 -6 90 -22
27 -27 25 -42 -12 -86 -34 -38 -91 -68 -333 -174 -90 -39 -126 -60 -151 -87
-13 -14 -38 -36 -56 -49 -35 -26 -28 -32 12 -9 44 25 49 20 33 -36 -29 -98 11
-67 55 43 7 18 27 34 59 49 54 24 339 166 392 195 53 29 82 56 96 88 11 25 10
36 -6 74 -11 25 -18 46 -17 47 2 2 26 13 55 25 45 19 54 28 73 71 30 71 29
130 -4 179 -14 22 -33 40 -40 40 -8 0 -16 5 -18 12 -7 21 -185 17 -290 -6 -43
-10 -118 -14 -122 -7 -3 4 19 15 47 25 62 22 91 51 112 111 28 84 -17 203 -90
236 -44 20 -137 20 -255 1 -141 -23 -280 -37 -280 -27 0 2 15 12 33 21 17 9
40 26 50 38 79 90 56 182 -76 305 -28 26 -46 34 -79 36 -24 1 -53 -1 -64 -6z"/>
<path d="M2080 3454 c0 -9 50 -95 81 -140 16 -24 29 -47 29 -52 0 -6 3 -12 8
-14 4 -1 42 -55 84 -118 114 -170 167 -247 231 -333 31 -42 57 -81 57 -87 0
-5 4 -10 8 -10 5 0 21 -17 35 -37 39 -55 135 -150 176 -175 20 -12 38 -24 41
-27 3 -4 59 -33 124 -66 65 -33 124 -65 130 -70 36 -34 131 -79 224 -107 59
-17 109 -34 112 -38 3 -3 13 -9 22 -13 26 -9 56 -64 53 -95 -5 -64 -17 -93
-33 -88 -139 39 -284 11 -357 -69 -37 -40 -79 -125 -91 -185 -27 -134 -32
-185 -39 -406 -6 -160 -11 -215 -30 -329 -8 -51 -35 -137 -46 -149 -15 -17
-10 -45 12 -67 33 -33 11 -44 -96 -44 -79 0 -98 3 -122 21 -25 19 -28 28 -29
80 -1 33 2 84 7 114 30 182 23 191 -148 194 -45 1 -85 5 -89 9 -5 4 -9 39 -10
77 -3 78 -25 127 -58 132 -12 2 -52 -2 -91 -8 -102 -15 -130 -1 -140 71 -14
95 -37 127 -96 130 -69 3 -96 14 -109 44 -11 29 -19 111 -10 111 3 0 6 24 7
53 0 28 11 104 23 167 37 189 30 221 -59 282 -25 18 -63 48 -84 67 -40 36
-117 142 -117 160 0 5 -4 12 -9 15 -5 4 -8 -14 -6 -40 4 -69 55 -159 140 -249
l75 -80 -3 -50 c-2 -27 -19 -108 -37 -180 -54 -212 -44 -334 30 -365 14 -6 48
-12 75 -13 42 -2 52 -7 62 -27 7 -14 13 -32 13 -41 0 -30 28 -83 57 -111 33
-32 63 -40 152 -43 36 -1 70 -3 74 -3 15 -3 24 -47 16 -70 -15 -38 -18 -103
-7 -128 13 -29 44 -37 141 -38 92 -1 100 -8 91 -81 -17 -137 7 -200 99 -258
15 -10 27 -15 27 -12 0 3 9 1 21 -5 64 -35 272 3 329 60 l21 21 -31 35 c-24
28 -28 39 -20 54 20 38 35 78 44 120 3 14 8 36 12 50 3 14 7 102 9 195 8 311
14 351 76 481 45 96 117 175 185 206 67 29 161 29 232 -2 29 -12 55 -20 58
-17 24 24 17 201 -11 260 -33 70 -72 99 -198 151 -48 19 -138 68 -200 110 -63
42 -117 76 -120 76 -13 0 -118 71 -179 122 -66 54 -200 188 -255 255 -17 21
-39 48 -50 60 -45 53 -53 64 -53 72 0 5 -4 11 -9 13 -4 2 -46 50 -91 107 -89
112 -103 128 -177 207 -46 49 -178 164 -188 164 -3 0 -5 -3 -5 -6z"/>
<path d="M729 2981 c50 -69 64 -119 57 -202 -3 -43 -6 -82 -7 -86 -5 -30 5
-58 30 -82 16 -15 34 -38 41 -50 12 -22 12 -30 7 -134 -1 -31 1 -57 6 -57 4 0
7 -10 7 -22 0 -13 13 -46 29 -74 41 -71 69 -82 216 -87 131 -4 166 -15 218
-70 15 -16 44 -35 65 -42 37 -13 147 -13 227 1 69 11 100 11 151 -2 27 -7 50
-11 52 -9 7 6 -54 57 -82 70 -25 11 -38 11 -73 0 -24 -7 -43 -11 -43 -9 0 2
-12 -1 -27 -7 -41 -15 -117 -13 -149 5 -16 8 -42 29 -59 46 -51 54 -106 71
-265 85 -91 8 -94 9 -123 28 -46 30 -61 72 -62 178 -1 104 -5 116 -66 178
l-34 34 0 120 c0 117 -1 121 -27 147 -14 15 -45 37 -68 49 l-42 22 21 -30z"/>
</g>
</svg>
