<?xml version="1.0" encoding="iso-8859-1"?>
<!-- Generator: Adobe Illustrator 19.0.0, SVG Export Plug-In . SVG Version: 6.00 Build 0)  -->
<svg version="1.1" id="Capa_1" xmlns="http://www.w3.org/2000/svg" xmlns:xlink="http://www.w3.org/1999/xlink" x="0px" y="0px"
	 viewBox="0 0 496 496" style="enable-background:new 0 0 496 496;" xml:space="preserve">
<polygon style="fill:#FFA64D;" points="240,216 240,480 304,480 320,360 336,360 352,480 416,480 416,216 376,208 376,272 280,272 
	280,208 "/>
<g>
	<path style="fill:#333333;" d="M434.448,220.504c-9.8-7.832-21.472-13.272-33.76-15.728l-14.536-2.912
		c10.44-9.232,18.664-20.864,23.808-34.072C426.68,166.768,440,152.976,440,136v-24C440,50.24,389.76,0,328,0S216,50.24,216,112v24
		c0,16.976,13.32,30.768,30.04,31.8c5.12,13.144,13.288,24.728,23.664,33.936L191.28,216H120v-32.856
		c1.232-0.232,2.464-0.44,3.744-0.784c3.92,1.032,8.016,1.64,12.256,1.64c26.472,0,48-21.528,48-48c0-8.808-2.464-17.368-7.04-24.84
		C186.312,103.664,192,92.224,192,80c0-19.512-14.048-35.808-32.552-39.304C155.912,17.68,135.984,0,112,0
		S68.088,17.68,64.552,40.696C46.048,44.192,32,60.488,32,80c0,12.224,5.688,23.664,15.04,31.16C42.464,118.632,40,127.192,40,136
		c0,26.472,21.528,48,48,48c3.848,0,7.8-0.56,12-1.696c1.376,0.376,2.68,0.592,4,0.84v33.992c-13.768,3.576-24,16-24,30.864
		c0,14.864,10.232,27.288,24,30.864V344h16v-64h64v24h48v192h79.008l16-120h1.984l16,120H424v-82.808
		c3.648,1.744,7.688,2.808,12,2.808c15.44,0,28-12.56,28-28v-76v-8v-21.992C464,257.96,453.224,235.536,434.448,220.504z
		 M414.704,150.48c0.784-4.72,1.296-9.536,1.296-14.48v-13.776c4.76,2.776,8,7.88,8,13.776
		C424,142.424,420.176,147.936,414.704,150.48z M328,16c51.704,0,93.872,41.112,95.816,92.352c-2.432-1.4-5.04-2.496-7.816-3.216V88
		h-16v8h-14.064c-19.752,0-38.312-7.688-52.28-21.656L328,68.688l-5.656,5.656C308.376,88.312,289.816,96,270.064,96H256v-8h-16
		v17.136c-2.776,0.72-5.384,1.816-7.816,3.216C234.128,57.112,276.296,16,328,16z M232,136c0-5.896,3.24-11,8-13.776V136
		c0,4.944,0.512,9.76,1.296,14.48C235.824,147.936,232,142.424,232,136z M256,136v-24h14.064c21.448,0,41.744-7.456,57.936-21.144
		C344.192,104.544,364.496,112,385.936,112H400v24c0,39.696-32.296,72-72,72S256,175.696,256,136z M328,224
		c14.408,0,27.984-3.552,40-9.712V264h-80v-49.712C300.016,220.448,313.592,224,328,224z M88,168c-17.648,0-32-14.352-32-32
		c0-7.632,2.864-14.96,7.968-20.832C69.84,108.4,78.36,104,88,104V88c-11.568,0-22.128,4.168-30.416,11.016
		C51.664,94.536,48,87.536,48,80c0-13.232,10.768-24,24-24h8v-8c0-17.648,14.352-32,32-32c15.256,0,28,10.744,31.192,25.048
		C125.376,45.088,112,60.984,112,80h16c0-13.232,10.768-24,24-24s24,10.768,24,24c0,9.28-5.504,17.816-14.008,21.736l-9.976,4.608
		l7.448,8.08C164.968,120.4,168,128.064,168,136c0,17.648-14.352,32-32,32c-1.688,0-3.312-0.248-4.936-0.496
		c-1.472-0.272-2.992-0.64-4.656-1.16L124,165.576l-0.072,0.024C112.256,160.816,104,149.368,104,136H88
		c0,11.36,3.984,21.792,10.6,30.016l-1.016,0.32C94,167.472,90.96,168,88,168z M96,248c0-5.896,3.24-11,8-13.776v27.544
		C99.24,259,96,253.896,96,248z M120,264v-32h64v32H120z M200,288v-8v-49.328l32-5.816V288H200z M408,480h-48.992l-16-120h-30.016
		l-16,120H248V221.952l24-4.36V280h112v-62.24l13.544,2.712c3.584,0.72,7.056,1.856,10.456,3.176V264h16v-31.312
		c0.144,0.112,0.304,0.2,0.448,0.312C439.416,244.984,448,262.84,448,282.008V296h-24v-16h-16v80v28V480z M448,388
		c0,6.616-5.384,12-12,12s-12-5.384-12-12v-28v-48h24V388z"/>
	<rect x="376" y="296" style="fill:#333333;" width="16" height="16"/>
	<rect x="264" y="296" style="fill:#333333;" width="16" height="16"/>
	<rect x="360" y="128" style="fill:#333333;" width="16" height="16"/>
	<rect x="280" y="128" style="fill:#333333;" width="16" height="16"/>
	<rect x="320" y="168" style="fill:#333333;" width="16" height="16"/>
	<rect x="120" y="112" style="fill:#333333;" width="16" height="16"/>
	<rect x="144" y="72" style="fill:#333333;" width="16" height="16"/>
	<rect x="88" y="40" style="fill:#333333;" width="16" height="16"/>
</g>
<g>
</g>
<g>
</g>
<g>
</g>
<g>
</g>
<g>
</g>
<g>
</g>
<g>
</g>
<g>
</g>
<g>
</g>
<g>
</g>
<g>
</g>
<g>
</g>
<g>
</g>
<g>
</g>
<g>
</g>
</svg>
